[
{% for document in documents %}
{
  "type": "{{ document.type }}",
  "uuid": "{{ document.uuid }}",
  "attributes": {
    "title": "{{ document.title }}!",
    "body": "{{ document.body }}",
    "created": "{{ document.created }}",
    "updated": "{{ document.updated }}"
  }
}{% if not loop.last %},{% endif %}
{% endfor %}
]
